\relax 
\select@language{english}
\@writefile{toc}{\select@language{english}}
\@writefile{lof}{\select@language{english}}
\@writefile{lot}{\select@language{english}}
\@writefile{toc}{\contentsline {section}{\numberline {1}Installation}{1}}
\@writefile{toc}{\contentsline {section}{\numberline {2}Classes}{1}}
\@writefile{toc}{\contentsline {subsection}{\numberline {2.1}class members}{1}}
\@writefile{toc}{\contentsline {subsection}{\numberline {2.2}class constructor}{2}}
\@writefile{toc}{\contentsline {subsection}{\numberline {2.3}class methods}{2}}
\@writefile{toc}{\contentsline {subsubsection}{\numberline {2.3.1}gcd.Parameters}{2}}
\@writefile{toc}{\contentsline {subsubsection}{\numberline {2.3.2}gcd.State}{2}}
\@writefile{toc}{\contentsline {section}{\numberline {3}User functions}{2}}
\@writefile{toc}{\contentsline {subsection}{\numberline {3.1}module solve}{2}}
\@writefile{toc}{\contentsline {subsection}{\numberline {3.2}module tests}{3}}
\@writefile{toc}{\contentsline {subsection}{\numberline {3.3}module ini}{3}}
\@writefile{toc}{\contentsline {subsection}{\numberline {3.4}module disp}{3}}
\@writefile{toc}{\contentsline {subsection}{\numberline {3.5}module dat\_t}{4}}
\@writefile{toc}{\contentsline {section}{\numberline {4}Todo}{5}}
